
Docusign is the global leader in electronic signature technology and digital transaction management services based out of San Francisco.

78821 Docusign solution for life science operations

 explains how Docusign makes it easier for Life Sciences professionals to adopt digital approvals, agreements and processes.





Eva Purro Lead not consideard coz of employee size is less
Director of Quality Assurance
epurro@listlabs.com
+1.408.866.6363
List Biological Laboratories, Inc.
540 Division St
Campbell, CA 95008-6906
United States
Industries Pharmaceuticals  
10,001+ employees
19B USD







Bradford Smith( Paper sent but lead not consideard coz is in financial not in pharma)
Director of Research
bsmith@baxterinvestment.com
+1.203.637.4559
.............................................

Rob Johnson  not intersted
Director Environmental Services
rjohnson@baxterregional.org
+1.870.508.1044

Sherry Sarintra
Director, Compensation
sherry.sarintra@bmrn.com
+1.415.382.5652
Biomarin Pharmaceutical Inc.
105 Digital Dr
Novato, CA 94949-8703
United States
.......................................................
Neena Dosanj
Senior Director, Human Resources Lead, Consume
neena.dosanj@pfizer.com
+1.973.660.5023
Pfizer 
235 E 42nd St
New York, NY 10017-5703
United States
...................................
Katherine Dulanto
Director, International Benefits and Global Mobility
dulanto_katherine_paola@lilly.com
+1.317.433.5899
Wesley Donohoe
VP Product Managment
Wdonohoe@onemedical.com
415.523.6317
One Medical Group, Inc.
130 Sutter St Halladie Bldg
San Francisco, CA 94104-4003
United States
 Supply Chain
................................................
Lyzette Abaya-Mede
Senior Regionals Sales Director
lyzette.abaya-mede@gilead.com
+1.650.522.5334
Gilead Sciences, Inc.
333 Lakeside Dr Headquarters
San Mateo, CA 94404-1147
United States
....................................

https://docs.google.com/spreadsheets/d/15QrPBuw2OHmk2M7lHivso4Zv0cV3oEIZ6dkN0JjOJg8/edit#gid=0